R para datos de biologging
…
```
## `summarise()` regrouping output by 'plot_id' (override with `.groups` argument)
```

```
## # A tibble: 196 x 3
## # Groups:   plot_id [24]
##    plot_id genus           mean_weight
##      <int> <chr>                 <dbl>
##  1       1 Baiomys                7   
##  2       1 Chaetodipus           22.2 
##  3       1 Dipodomys             60.2 
##  4       1 Neotoma              156.  
##  5       1 Onychomys             27.7 
##  6       1 Perognathus            9.62
##  7       1 Peromyscus            22.2 
##  8       1 Reithrodontomys       11.4 
##  9       2 Baiomys                6   
## 10       2 Chaetodipus           25.1 
## # … with 186 more rows
```

---

# Pipes, spread y gather

Veamos nuevamente el resultado

```r
surveys_gw
```

```
## # A tibble: 196 x 3
## # Groups:   plot_id [24]
##    plot_id genus           mean_weight
##      <int> <chr>                 <dbl>
##  1       1 Baiomys                7   
##  2       1 Chaetodipus           22.2 
##  3       1 Dipodomys             60.2 
##  4       1 Neotoma              156.  
##  5       1 Onychomys             27.7 
##  6       1 Perognathus            9.62
##  7       1 Peromyscus            22.2 
##  8       1 Reithrodontomys       11.4 
##  9       2 Baiomys                6   
## 10       2 Chaetodipus           25.1 
## # … with 186 more rows
```
…
---

# Pipes, spread y gather

Extendiendo el/la data frame con una columna por genus

```r
library(tidyr) # para spread y gather
(surveys_spread <- surveys_gw %>% 
  spread(key = genus, value = mean_weight))
```

```
## # A tibble: 24 x 11
## # Groups:   plot_id [24]
##    plot_id Baiomys Chaetodipus Dipodomys Neotoma Onychomys Perognathus
##      <int>   <dbl>       <dbl>     <dbl>   <dbl>     <dbl>       <dbl>
##  1       1    7           22.2      60.2    156.      27.7        9.62
##  2       2    6           25.1      55.7    169.      26.9        6.95
##  3       3    8.61        24.6      52.0    158.      26.0        7.51
##  4       4   NA           23.0      57.5    164.      28.1        7.82
##  5       5    7.75        18.0      51.1    190.      27.0        8.66
##  6       6   NA           24.9      58.6    180.      25.9        7.81
##  7       7   NA           19.9      57.4    170.      23.6        7   
##  8       8   NA           20.5      59.4    134.      25.9        7.06
##  9       9   NA           18.9      57.5    162.      27.5        7.37
## 10      10   NA           22.3      51.8    190       28.7       NA   
## # … with 14 more rows, and 4 more variables: Peromyscus <dbl>,
## #   Reithrodontomys <dbl>, Sigmodon <dbl>, Spermophilus <dbl>
```
…
---

# Pipes, spread y gather

Comprimiento el/la data frame con una sola columna para genus

```r
# library(tidyr) # para spread y gather
(surveys_gather <- surveys_spread %>% 
  gather(key = genus, value = mean_weight, -plot_id))
```

```
## # A tibble: 240 x 3
## # Groups:   plot_id [24]
##    plot_id genus   mean_weight
##      <int> <chr>         <dbl>
##  1       1 Baiomys        7   
##  2       2 Baiomys        6   
##  3       3 Baiomys        8.61
##  4       4 Baiomys       NA   
##  5       5 Baiomys        7.75
##  6       6 Baiomys       NA   
##  7       7 Baiomys       NA   
##  8       8 Baiomys       NA   
##  9       9 Baiomys       NA   
## 10      10 Baiomys       NA   
## # … with 230 more rows
```
…
**Desafío 3:** en base a estos datos, hacer un resumen meteorológico de cada aeropuerto

10:00

---

# Unión de data frames

```r
left_join(flights, weather, by = c("origin","time_hour"))
```

```
## # A tibble: 336,776 x 32
##    year.x month.x day.x dep_time sched_dep_time dep_delay arr_time
##     <int>   <int> <int>    <int>          <int>     <dbl>    <int>
##  1   2013       1     1      517            515         2      830
##  2   2013       1     1      533            529         4      850
##  3   2013       1     1      542            540         2      923
##  4   2013       1     1      544            545        -1     1004
##  5   2013       1     1      554            600        -6      812
##  6   2013       1     1      554            558        -4      740
##  7   2013       1     1      555            600        -5      913
##  8   2013       1     1      557            600        -3      709
##  9   2013       1     1      557            600        -3      838
## 10   2013       1     1      558            600        -2      753
## # … with 336,766 more rows, and 25 more variables: sched_arr_time <int>,
## #   arr_delay <dbl>, carrier <chr>, flight <int>, tailnum <chr>, origin <chr>,
## #   dest <chr>, air_time <dbl>, distance <dbl>, hour.x <dbl>, minute <dbl>,
## #   time_hour <dttm>, year.y <int>, month.y <int>, day.y <int>, hour.y <int>,
## #   temp <dbl>, dewp <dbl>, humid <dbl>, wind_dir <dbl>, wind_speed <dbl>,
## #   wind_gust <dbl>, precip <dbl>, pressure <dbl>, visib <dbl>
```
…
